module github.com/stellar/go

go 1.20

require (
	firebase.google.com/go v3.12.0+incompatible
	github.com/2opremio/pretty v0.2.2-0.20230601220618-e1d5758b2a95
	github.com/BurntSushi/toml v1.3.2
	github.com/Masterminds/squirrel v1.5.4
	github.com/Microsoft/go-winio v0.6.1
	github.com/adjust/goautoneg v0.0.0-20150426214442-d788f35a0315
	github.com/asaskevich/govalidator v0.0.0-20230301143203-a9d515a09cc2
	github.com/aws/aws-sdk-go v1.45.26
	github.com/creachadair/jrpc2 v1.1.0
	github.com/elazarl/go-bindata-assetfs v1.0.1
	github.com/getsentry/raven-go v0.2.0
	github.com/go-chi/chi v4.1.2+incompatible
	github.com/go-errors/errors v1.5.1
	github.com/golang-jwt/jwt v3.2.2+incompatible
	github.com/google/uuid v1.3.1
	github.com/gorilla/schema v1.2.0
	github.com/graph-gophers/graphql-go v1.3.0
	github.com/guregu/null v4.0.0+incompatible
	github.com/holiman/uint256 v1.2.3
	github.com/howeyc/gopass v0.0.0-20170109162249-bf9dde6d0d2c
	github.com/jarcoal/httpmock v0.0.0-20161210151336-4442edb3db31
	github.com/jmoiron/sqlx v1.3.5
	github.com/lib/pq v1.10.9
	github.com/manucorporat/sse v0.0.0-20160126180136-ee05b128a739
	github.com/mitchellh/go-homedir v1.1.0
	github.com/onsi/ginkgo v1.16.5
	github.com/onsi/gomega v1.27.10
	github.com/pelletier/go-toml v1.9.5
	github.com/pkg/errors v0.9.1
	github.com/prometheus/client_golang v1.17.0
	github.com/prometheus/client_model v0.5.0
	github.com/rs/cors v1.10.1
	github.com/rubenv/sql-migrate v1.5.2
	github.com/segmentio/go-loggly v0.5.1-0.20171222203950-eb91657e62b2
	github.com/shurcooL/httpfs v0.0.0-20230704072500-f1e31cf0ba5c
	github.com/sirupsen/logrus v1.9.3
	github.com/spf13/cobra v1.7.0
	github.com/spf13/pflag v1.0.5
	github.com/spf13/viper v1.17.0
	github.com/stellar/go-xdr v0.0.0-20230919160922-6c7b68458206
	github.com/stellar/throttled v2.2.3-0.20190823235211-89d75816f59d+incompatible
	github.com/stretchr/testify v1.8.4
	github.com/tyler-smith/go-bip39 v0.0.0-20180618194314-52158e4697b8
	github.com/xdrpp/goxdr v0.1.1
	google.golang.org/api v0.143.0
	gopkg.in/gavv/httpexpect.v1 v1.0.0-20170111145843-40724cf1e4a0
	gopkg.in/square/go-jose.v2 v2.4.1
	gopkg.in/tylerb/graceful.v1 v1.2.15
)

require (
	cloud.google.com/go/compute v1.23.0 // indirect
	cloud.google.com/go/compute/metadata v0.2.3 // indirect
	cloud.google.com/go/iam v1.1.1 // indirect
	cloud.google.com/go/longrunning v0.5.1 // indirect
	github.com/andybalholm/brotli v1.0.4 // indirect
	github.com/certifi/gocertifi v0.0.0-20210507211836-431795d63e8d // indirect
	github.com/cespare/xxhash/v2 v2.2.0 // indirect
	github.com/creachadair/mds v0.0.1 // indirect
	github.com/fsnotify/fsnotify v1.6.0 // indirect
	github.com/go-gorp/gorp/v3 v3.1.0 // indirect
	github.com/gobuffalo/packd v1.0.2 // indirect
	github.com/google/pprof v0.0.0-20210720184732-4bb14d4b1be1 // indirect
	github.com/google/s2a-go v0.1.7 // indirect
	github.com/googleapis/enterprise-certificate-proxy v0.3.1 // indirect
	github.com/hashicorp/hcl v1.0.0 // indirect
	github.com/nxadm/tail v1.4.8 // indirect
	github.com/pelletier/go-toml/v2 v2.1.0 // indirect
	github.com/rogpeppe/go-internal v1.11.0 // indirect
	github.com/sagikazarmark/locafero v0.3.0 // indirect
	github.com/sagikazarmark/slog-shim v0.1.0 // indirect
	github.com/sourcegraph/conc v0.3.0 // indirect
	github.com/spf13/afero v1.10.0 // indirect
	github.com/subosito/gotenv v1.6.0 // indirect
	go.uber.org/multierr v1.11.0 // indirect
	golang.org/x/mod v0.13.0 // indirect
	golang.org/x/sync v0.4.0 // indirect
	golang.org/x/tools v0.14.0 // indirect
	golang.org/x/xerrors v0.0.0-20220907171357-04be3eba64a2 // indirect
	google.golang.org/genproto/googleapis/api v0.0.0-20230913181813-007df8e322eb // indirect
	google.golang.org/genproto/googleapis/rpc v0.0.0-20230920204549-e6e6cdab5c13 // indirect
	gopkg.in/ini.v1 v1.67.0 // indirect
)

require (
	cloud.google.com/go v0.110.7 // indirect
	cloud.google.com/go/firestore v1.13.0 // indirect
	cloud.google.com/go/storage v1.30.1 // indirect
	github.com/ajg/form v0.0.0-20160822230020-523a5da1a92f // indirect
	github.com/beorn7/perks v1.0.1 // indirect
	github.com/buger/goreplay v1.3.2
	github.com/davecgh/go-spew v1.1.2-0.20180830191138-d8f796af33cc // indirect
	github.com/fatih/structs v1.0.0 // indirect
	github.com/gavv/monotime v0.0.0-20161010190848-47d58efa6955 // indirect
	github.com/golang/groupcache v0.0.0-20210331224755-41bb18bfe9da // indirect
	github.com/golang/protobuf v1.5.3 // indirect
	github.com/google/go-cmp v0.5.9 // indirect
	github.com/google/go-querystring v0.0.0-20160401233042-9235644dd9e5 // indirect
	github.com/googleapis/gax-go/v2 v2.12.0 // indirect
	github.com/hashicorp/golang-lru v1.0.2 // indirect
	github.com/imkira/go-interpol v1.1.0 // indirect
	github.com/inconshreveable/mousetrap v1.1.0 // indirect
	github.com/jmespath/go-jmespath v0.4.0 // indirect
	github.com/klauspost/compress v1.17.0 // indirect
	github.com/kr/text v0.2.0 // indirect
	github.com/lann/builder v0.0.0-20180802200727-47ae307949d0 // indirect
	github.com/lann/ps v0.0.0-20150810152359-62de8c46ede0 // indirect
	github.com/magiconair/properties v1.8.7 // indirect
	github.com/matttproud/golang_protobuf_extensions v1.0.4 // indirect
	github.com/mitchellh/mapstructure v1.5.0 // indirect
	github.com/moul/http2curl v0.0.0-20161031194548-4e24498b31db // indirect
	github.com/opentracing/opentracing-go v1.1.0 // indirect
	github.com/pmezard/go-difflib v1.0.1-0.20181226105442-5d4384ee4fb2 // indirect
	github.com/prometheus/common v0.44.0 // indirect
	github.com/prometheus/procfs v0.12.0 // indirect
	github.com/sergi/go-diff v0.0.0-20161205080420-83532ca1c1ca // indirect
	github.com/spf13/cast v1.5.1 // indirect
	github.com/stretchr/objx v0.5.1 // indirect
	github.com/valyala/bytebufferpool v1.0.0 // indirect
	github.com/valyala/fasthttp v1.34.0 // indirect
	github.com/xeipuuv/gojsonpointer v0.0.0-20151027082146-e0fe6f683076 // indirect
	github.com/xeipuuv/gojsonreference v0.0.0-20150808065054-e02fc20de94c // indirect
	github.com/xeipuuv/gojsonschema v0.0.0-20161231055540-f06f290571ce // indirect
	github.com/yalp/jsonpath v0.0.0-20150812003900-31a79c7593bb // indirect
	github.com/yudai/gojsondiff v0.0.0-20170107030110-7b1b7adf999d // indirect
	github.com/yudai/golcs v0.0.0-20150405163532-d1c525dea8ce // indirect
	github.com/yudai/pp v2.0.1+incompatible // indirect
	go.opencensus.io v0.24.0 // indirect
	golang.org/x/crypto v0.14.0 // indirect
	golang.org/x/exp v0.0.0-20231006140011-7918f672742d
	golang.org/x/net v0.17.0 // indirect
	golang.org/x/oauth2 v0.12.0 // indirect
	golang.org/x/sys v0.13.0 // indirect
	golang.org/x/term v0.13.0 // indirect
	golang.org/x/text v0.13.0 // indirect
	golang.org/x/time v0.3.0
	google.golang.org/appengine v1.6.7 // indirect
	google.golang.org/genproto v0.0.0-20230913181813-007df8e322eb // indirect
	google.golang.org/grpc v1.58.2 // indirect
	google.golang.org/protobuf v1.31.0 // indirect
	gopkg.in/tomb.v1 v1.0.0-20141024135613-dd632973f1e7 // indirect
	gopkg.in/yaml.v3 v3.0.1 // indirect
)
